…
    ## Warning: There were 45 warnings in `mutate()`.
    ## The first warning was:
    ## ℹ In argument: `results = map(models, function(x) broom::tidy(x, conf.int =
    ##   TRUE))`.
    ## Caused by warning:
    ## ! glm.fit: fitted probabilities numerically 0 or 1 occurred
    ## ℹ Run `dplyr::last_dplyr_warnings()` to see the 44 remaining warnings.

``` r
glm_results
```

    ## # A tibble: 47 × 5
    ##    city_state        OR lower_bound upper_bound  p.value
    ##    <chr>          <dbl>       <dbl>       <dbl>    <dbl>
    ##  1 Albuquerque_NM 1.77        0.825       3.76  1.39e- 1
    ##  2 Atlanta_GA     1.00        0.680       1.46  1.00e+ 0
    ##  3 Baltimore_MD   0.426       0.324       0.558 6.26e-10
    ##  4 Baton Rouge_LA 0.381       0.204       0.684 1.65e- 3
    ##  5 Birmingham_AL  0.870       0.571       1.31  5.11e- 1
    ##  6 Boston_MA      0.674       0.353       1.28  2.26e- 1
    ##  7 Buffalo_NY     0.521       0.288       0.936 2.90e- 2
    ##  8 Charlotte_NC   0.884       0.551       1.39  6.00e- 1
    ##  9 Chicago_IL     0.410       0.336       0.501 1.86e-18
    ## 10 Cincinnati_OH  0.400       0.231       0.667 6.49e- 4
    ## # ℹ 37 more rows
…
